tfidftopicmodel.R
…
library(tidyr)

transripts <- read.csv("Democratic Debate 2020 transcripts/debate_transcripts_v3_2020-02-26.csv", stringsAsFactors = FALSE, encoding = "UTF-8")

#Bernie's Transcripts
bern_trans <- 
  transripts %>% 
  as_tibble() %>% 
  filter(speaker == c("Bernie Sanders"))

#Grouping the transription by debate
bern_trans %>% 
  group_by(debate_name)

## # A tibble: 430 x 6
## # Groups:   debate_name [10]
##    date   debate_name      debate_section    speaker speech     speaking_time_s~
##    <chr>  <chr>            <chr>             <chr>   <chr>                 <dbl>
##  1 02-25~ South Carolina ~ Part 1: South Ca~ Bernie~ "Well, yo~               59
##  2 02-25~ South Carolina ~ Part 1: South Ca~ Bernie~ "Oh, Mr. ~               27
##  3 02-25~ South Carolina ~ Part 1: South Ca~ Bernie~ "Pete men~               19
##  4 02-25~ South Carolina ~ Part 1: South Ca~ Bernie~ "Pete has~               37
##  5 02-25~ South Carolina ~ Part 1: South Ca~ Bernie~ "I didn\x~                1
##  6 02-25~ South Carolina ~ Part 1: South Ca~ Bernie~ "Good."                   0
##  7 02-25~ South Carolina ~ Part 1: South Ca~ Bernie~ "Thank yo~                0
##  8 02-25~ South Carolina ~ Part 1: South Ca~ Bernie~ "Over a 1~                0
##  9 02-25~ South Carolina ~ Part 1: South Ca~ Bernie~ "How many~                2
## 10 02-25~ South Carolina ~ Part 1: South Ca~ Bernie~ "The answ~                0
## # ... with 420 more rows
…
